# Blender v2.69 (sub 0) OBJ File: ''
# www.blender.org
mtllib untitled.mtl
o Cube
v 7.357729 -1.000000 -1.189836
v 7.357729 -1.000000 0.810164
v 5.357729 -1.000000 0.810164
v 5.357730 -1.000000 -1.189836
v 7.357730 1.000000 -1.189835
v 7.357729 1.000000 0.810165
v 5.357729 1.000000 0.810164
v 5.357729 1.000000 -1.189836
vn 0.000000 -1.000000 0.000000
vn 0.000000 1.000000 0.000000
vn 1.000000 0.000000 0.000000
vn -0.000000 -0.000000 1.000000
vn -1.000000 -0.000000 -0.000000
vn 0.000000 0.000000 -1.000000
usemtl Material
s off
f 1//1 2//1 3//1 4//1
f 5//2 8//2 7//2 6//2
f 1//3 5//3 6//3 2//3
f 2//4 6//4 7//4 3//4
f 3//5 7//5 8//5 4//5
f 5//6 1//6 4//6 8//6
