# Blender v2.69 (sub 0) OBJ File: ''
# www.blender.org
mtllib box.mtl
o Cube
v -0.023448 0.022791 -0.988257
v -0.023448 0.022791 -0.004372
v -1.007332 0.022791 -0.004372
v -1.007332 0.022791 -0.988257
v -0.023447 1.006676 -0.988257
v -0.023448 1.006676 -0.004372
v -1.007333 1.006676 -0.004372
v -1.007332 1.006676 -0.988257
vt 0.000000 0.000000
vt 1.000000 0.000000
vt 0.000000 1.000000
vt 1.000000 1.000000
vn 0.000000 -1.000000 0.000000
vn 0.000000 1.000000 -0.000000
vn 1.000000 -0.000000 0.000000
vn -0.000000 -0.000000 1.000000
vn -1.000000 -0.000000 -0.000000
vn 0.000000 0.000000 -1.000000
vn 1.000000 0.000000 0.000001
usemtl Material.001
s off
f 1/1/1 2/2/1 4/3/1
f 5/1/2 8/2/2 6/3/2
f 1/1/3 5/2/3 2/3/3
f 2/1/4 6/2/4 3/3/4
f 3/1/5 7/2/5 4/3/5
f 5/1/6 1/2/6 8/3/6
f 2/2/1 3/4/1 4/3/1
f 8/2/2 7/4/2 6/3/2
f 5/2/7 6/4/7 2/3/7
f 6/2/4 7/4/4 3/3/4
f 7/2/5 8/4/5 4/3/5
f 1/2/6 4/4/6 8/3/6
