# Blender v2.69 (sub 0) OBJ File: ''
# www.blender.org
o Grid
v 0.049358 0.957574 1.039527
v 0.047576 0.735548 1.030361
v 0.045793 0.513522 1.021195
v 0.044010 0.291496 1.012030
v 0.042227 0.069470 1.002864
v 0.040444 -0.152556 0.993698
v 0.038661 -0.374582 0.984533
v 0.036878 -0.596608 0.975367
v 0.035095 -0.818634 0.966202
v 0.033312 -1.040660 0.957036
v 0.040173 0.966806 0.817686
v 0.038390 0.744780 0.808521
v 0.036607 0.522754 0.799355
v 0.034824 0.300728 0.790189
v 0.033041 0.078702 0.781024
v 0.031258 -0.143324 0.771858
v 0.029475 -0.365350 0.762693
v 0.027692 -0.587376 0.753527
v 0.025909 -0.809402 0.744361
v 0.024126 -1.031428 0.735196
v 0.030987 0.976038 0.595846
v 0.029204 0.754012 0.586680
v 0.027421 0.531986 0.577515
v 0.025638 0.309960 0.568349
v 0.023856 0.087934 0.559184
v 0.022073 -0.134092 0.550018
v 0.020290 -0.356118 0.540852
v 0.018507 -0.578144 0.531687
v 0.016724 -0.800170 0.522521
v 0.014941 -1.022196 0.513355
v 0.021802 0.985269 0.374006
v 0.020019 0.763243 0.364840
v 0.018236 0.541217 0.355675
v 0.016453 0.319191 0.346509
v 0.014670 0.097165 0.337343
v 0.012887 -0.124861 0.328178
v 0.011104 -0.346887 0.319012
v 0.009321 -0.568912 0.309846
v 0.007538 -0.790938 0.300681
v 0.005755 -1.012964 0.291515
v 0.012616 0.994501 0.152165
v 0.010833 0.772475 0.143000
v 0.009050 0.550449 0.133834
v 0.007267 0.328423 0.124669
v 0.005484 0.106397 0.115503
v 0.003701 -0.115629 0.106337
v 0.001918 -0.337655 0.097172
v 0.000135 -0.559681 0.088006
v -0.001647 -0.781707 0.078841
v -0.003430 -1.003733 0.069675
v 0.003430 1.003733 -0.069675
v 0.001647 0.781707 -0.078840
v -0.000135 0.559681 -0.088006
v -0.001918 0.337655 -0.097172
v -0.003701 0.115629 -0.106337
v -0.005484 -0.106397 -0.115503
v -0.007267 -0.328423 -0.124669
v -0.009050 -0.550449 -0.133834
v -0.010833 -0.772475 -0.143000
v -0.012616 -0.994501 -0.152165
v -0.005755 1.012964 -0.291515
v -0.007538 0.790938 -0.300681
v -0.009321 0.568913 -0.309846
v -0.011104 0.346887 -0.319012
v -0.012887 0.124861 -0.328178
v -0.014670 -0.097165 -0.337343
v -0.016453 -0.319191 -0.346509
v -0.018236 -0.541217 -0.355674
v -0.020019 -0.763243 -0.364840
v -0.021802 -0.985269 -0.374006
v -0.014941 1.022196 -0.513355
v -0.016724 0.800170 -0.522521
v -0.018507 0.578144 -0.531687
v -0.020290 0.356118 -0.540852
v -0.022073 0.134092 -0.550018
v -0.023856 -0.087934 -0.559184
v -0.025638 -0.309960 -0.568349
v -0.027421 -0.531986 -0.577515
v -0.029204 -0.754012 -0.586680
v -0.030987 -0.976038 -0.595846
v -0.024126 1.031428 -0.735196
v -0.025909 0.809402 -0.744361
v -0.027692 0.587376 -0.753527
v -0.029475 0.365350 -0.762693
v -0.031258 0.143324 -0.771858
v -0.033041 -0.078702 -0.781024
v -0.034824 -0.300728 -0.790189
v -0.036607 -0.522754 -0.799355
v -0.038390 -0.744780 -0.808521
v -0.040173 -0.966806 -0.817686
v -0.033312 1.040660 -0.957036
v -0.035095 0.818634 -0.966202
v -0.036878 0.596608 -0.975367
v -0.038661 0.374582 -0.984533
v -0.040444 0.152556 -0.993698
v -0.042227 -0.069470 -1.002864
v -0.044010 -0.291496 -1.012030
v -0.045793 -0.513522 -1.021195
v -0.047576 -0.735548 -1.030361
v -0.049358 -0.957574 -1.039526
vn -0.999113 0.006305 0.041632
vn -0.999113 0.006304 0.041632
s off
f 10//1 9//1 20//1
f 9//1 8//1 19//1
f 8//1 7//1 18//1
f 7//1 6//1 17//1
f 6//1 5//1 16//1
f 5//1 4//1 15//1
f 4//1 3//1 14//1
f 3//1 2//1 13//1
f 2//1 1//1 12//1
f 20//1 19//1 30//1
f 19//1 18//1 29//1
f 18//1 17//1 28//1
f 17//1 16//1 27//1
f 16//1 15//1 26//1
f 15//1 14//1 25//1
f 14//1 13//1 24//1
f 13//1 12//1 23//1
f 12//1 11//1 22//1
f 30//1 29//1 40//1
f 29//1 28//1 39//1
f 28//1 27//1 38//1
f 27//1 26//1 37//1
f 26//1 25//1 36//1
f 25//1 24//1 35//1
f 24//1 23//1 34//1
f 23//1 22//1 33//1
f 22//1 21//1 32//1
f 40//1 39//1 50//1
f 39//1 38//1 49//1
f 38//1 37//1 48//1
f 37//1 36//1 47//1
f 36//1 35//1 46//1
f 35//1 34//1 45//1
f 34//1 33//1 44//1
f 33//1 32//1 43//1
f 32//1 31//1 42//1
f 50//1 49//1 60//1
f 49//1 48//1 59//1
f 48//1 47//1 58//1
f 47//1 46//1 57//1
f 46//1 45//1 56//1
f 45//1 44//1 55//1
f 44//1 43//1 54//1
f 43//1 42//1 53//1
f 42//1 41//1 52//1
f 60//1 59//1 70//1
f 59//1 58//1 69//1
f 58//1 57//1 68//1
f 57//1 56//1 67//1
f 56//1 55//1 66//1
f 55//1 54//1 65//1
f 54//1 53//1 64//1
f 53//1 52//1 63//1
f 52//1 51//1 62//1
f 70//1 69//1 80//1
f 69//1 68//1 79//1
f 68//1 67//1 78//1
f 67//1 66//1 77//1
f 66//1 65//1 76//1
f 65//1 64//1 75//1
f 64//1 63//1 74//1
f 63//1 62//1 73//1
f 62//1 61//1 72//1
f 80//1 79//1 90//1
f 79//1 78//1 89//1
f 78//1 77//1 88//1
f 77//1 76//1 87//1
f 76//1 75//1 86//1
f 75//1 74//1 85//1
f 74//1 73//1 84//1
f 73//1 72//1 83//1
f 72//1 71//1 82//1
f 90//2 89//2 100//2
f 89//1 88//1 99//1
f 88//1 87//1 98//1
f 87//1 86//1 97//1
f 86//1 85//1 96//1
f 85//1 84//1 95//1
f 84//1 83//1 94//1
f 83//1 82//1 93//1
f 82//1 81//1 92//1
f 9//1 19//1 20//1
f 8//1 18//1 19//1
f 7//1 17//1 18//1
f 6//1 16//1 17//1
f 5//1 15//1 16//1
f 4//1 14//1 15//1
f 3//1 13//1 14//1
f 2//1 12//1 13//1
f 1//1 11//1 12//1
f 19//1 29//1 30//1
f 18//1 28//1 29//1
f 17//1 27//1 28//1
f 16//1 26//1 27//1
f 15//1 25//1 26//1
f 14//1 24//1 25//1
f 13//1 23//1 24//1
f 12//1 22//1 23//1
f 11//1 21//1 22//1
f 29//1 39//1 40//1
f 28//1 38//1 39//1
f 27//1 37//1 38//1
f 26//1 36//1 37//1
f 25//1 35//1 36//1
f 24//1 34//1 35//1
f 23//1 33//1 34//1
f 22//1 32//1 33//1
f 21//1 31//1 32//1
f 39//1 49//1 50//1
f 38//1 48//1 49//1
f 37//1 47//1 48//1
f 36//1 46//1 47//1
f 35//1 45//1 46//1
f 34//1 44//1 45//1
f 33//1 43//1 44//1
f 32//1 42//1 43//1
f 31//1 41//1 42//1
f 49//1 59//1 60//1
f 48//1 58//1 59//1
f 47//1 57//1 58//1
f 46//1 56//1 57//1
f 45//1 55//1 56//1
f 44//1 54//1 55//1
f 43//1 53//1 54//1
f 42//1 52//1 53//1
f 41//1 51//1 52//1
f 59//1 69//1 70//1
f 58//1 68//1 69//1
f 57//1 67//1 68//1
f 56//1 66//1 67//1
f 55//1 65//1 66//1
f 54//1 64//1 65//1
f 53//1 63//1 64//1
f 52//1 62//1 63//1
f 51//1 61//1 62//1
f 69//1 79//1 80//1
f 68//1 78//1 79//1
f 67//1 77//1 78//1
f 66//1 76//1 77//1
f 65//1 75//1 76//1
f 64//1 74//1 75//1
f 63//1 73//1 74//1
f 62//1 72//1 73//1
f 61//1 71//1 72//1
f 79//1 89//1 90//1
f 78//1 88//1 89//1
f 77//1 87//1 88//1
f 76//1 86//1 87//1
f 75//1 85//1 86//1
f 74//1 84//1 85//1
f 73//1 83//1 84//1
f 72//1 82//1 83//1
f 71//1 81//1 82//1
f 89//1 99//1 100//1
f 88//1 98//1 99//1
f 87//1 97//1 98//1
f 86//1 96//1 97//1
f 85//1 95//1 96//1
f 84//1 94//1 95//1
f 83//1 93//1 94//1
f 82//1 92//1 93//1
f 81//1 91//1 92//1
